This is BibTeX, Version 0.99d
Capacity: max_strings=200000, hash_size=200000, hash_prime=170003
The top-level auxiliary file: cv.aux
Reallocating 'name_of_file' (item size: 1) to 9 items.
The style file: biblatex.bst
Reallocating 'name_of_file' (item size: 1) to 7 items.
Reallocating 'name_of_file' (item size: 1) to 6 items.
Reallocating 'glb_str_end' (item size: 4) to 20 items.
Reallocating 'glb_str_ptr' (item size: 4) to 20 items.
Reallocating 'global_strs' (item size: 1) to 4000000 items.
Reallocating 'singl_function' (item size: 4) to 100 items.
Reallocating 'singl_function' (item size: 4) to 100 items.
Reallocating 'singl_function' (item size: 4) to 100 items.
Reallocating 'wiz_functions' (item size: 4) to 6000 items.
Reallocating 'singl_function' (item size: 4) to 100 items.
Reallocating 'singl_function' (item size: 4) to 100 items.
Reallocating 'singl_function' (item size: 4) to 100 items.
Reallocating 'singl_function' (item size: 4) to 100 items.
Reallocating 'singl_function' (item size: 4) to 100 items.
Reallocating 'singl_function' (item size: 4) to 100 items.
Reallocating 'singl_function' (item size: 4) to 100 items.
Reallocating 'singl_function' (item size: 4) to 100 items.
Database file #1: cv-blx.bib
Database file #2: bibcv.bib
Biblatex version: 3.15
Reallocating 'wiz_functions' (item size: 4) to 9000 items.
Reallocating 'singl_function' (item size: 4) to 100 items.
You've used 19 entries,
            6393 wiz_defined-function locations,
            1318 strings with 11791 characters,
and the built_in function-call counts, 110460 in all, are:
= -- 7699
> -- 2161
< -- 477
+ -- 2929
- -- 776
* -- 7652
:= -- 12179
add.period$ -- 0
call.type$ -- 19
change.case$ -- 257
chr.to.int$ -- 45
cite$ -- 36
duplicate$ -- 12344
empty$ -- 9828
format.name$ -- 1341
if$ -- 22380
int.to.chr$ -- 0
int.to.str$ -- 67
missing$ -- 0
newline$ -- 647
num.names$ -- 893
pop$ -- 6448
preamble$ -- 1
purify$ -- 390
quote$ -- 0
skip$ -- 3429
stack$ -- 0
substring$ -- 12248
swap$ -- 2758
text.length$ -- 427
text.prefix$ -- 0
top$ -- 1
type$ -- 634
warning$ -- 0
while$ -- 1765
width$ -- 0
write$ -- 629
